{
    "version": "https://jsonfeed.org/version/1",
    "title": "Leonardo Luca Vignini",
    "description": "",
    "home_page_url": "https://vignini.gitlab.io",
    "feed_url": "https://vignini.gitlab.io/feed.json",
    "user_comment": "",
    "icon": "https://vignini.gitlab.io/media/website/v.png",
    "author": {
        "name": "Leonardo L. Vignini"
    },
    "items": [
        {
            "id": "https://vignini.gitlab.io/attivismo.html",
            "url": "https://vignini.gitlab.io/attivismo.html",
            "title": "Attivismo",
            "summary": "Rinunciare alla propria libertà significa rinunciare alla propria qualifica di uomo, ai diritti dell'umanità e anche ai propri doveri Jean- Jacques Rousseau Da anni sono membro del Gruppo Missioni Imola-Bukavu,&hellip;",
            "content_html": "<blockquote>\n<p>Rinunciare alla propria libertà significa rinunciare alla propria qualifica di uomo, ai diritti dell'umanità e anche ai propri doveri</p>\n<p>Jean- Jacques Rousseau</p>\n</blockquote>\n<h2 id=\"mcetoc_1dvmp0mka0\">Bukavu (RDC)</h2>\n<p>Da anni sono membro del Gruppo Missioni Imola-Bukavu, che si impegna per promuovere lo sviluppo a Bukavu in Repubblica Democratica del Congo. Sono stato anche protagonista di due viaggi, uno nel 2017 e uno nel 2019, a Bukavu, come rappresentante dall'Italia, per vedere e documentare le attività portate avanti.</p>\n<p>In particolare curo l'aspetto comunicativo del gruppo, per il quale ho tra le altre cose creato il sito web ufficiale. Inoltre, ho organizzato numerosi eventi di raccolta fondi e sono stato in numerose occasioni portavoce delle missioni umanitarie che portiamo avanti.</p>\n<p>Ho anche realizzato la campagna di crowfunding <a href=\"https://www.ideaginger.it/progetti/salvalasperanza.html\" title=\"https://www.ideaginger.it/progetti/salvalasperanza.html\" target=\"_blank\" rel=\"noopener noreferrer\">#SalvaLaSperanza</a>, nata per sostenere la banca di microcredito IMF-Kitumaini a Bukavu (RDC). Questa è stata realizzata sulla piattaforma Idea Ginger, ha raggiunto l’obiettivo finale di 9.951€.</p>\n<p>Per maggiori informazioni sulla missione a Bukavu clicca <a href=\"https://imolabukavu.it\" title=\"https://imolabukavu.it\" target=\"_blank\" rel=\"noopener noreferrer\">qui</a>.</p>\n<h2 id=\"mcetoc_1dvmpnbja1\">Free Software e diritti digitali</h2>\n<p>Sono molto interessato all'etica del software e alle implicazioni e l'impatto che le nuove tecnologie hanno sulla socità. In particolare sostengo la Free Software Foundation e l'Electronic Frontier Foundation, delle quali sono anche membro.</p>\n<p><a href=\"https://www.fsf.org/\" target=\"_blank\" rel=\"noopener noreferrer\"><img class=\"post__image\" src=\"https://vignini.gitlab.io/media/posts/4/2759243.png\" width=\"180\" height=\"45\"></a></p>\n<p><a href=\"https://www.eff.org/\" target=\"_blank\" rel=\"noopener noreferrer\"><img class=\"post__image\" src=\"https://vignini.gitlab.io/media/posts/4/2020-membership-badge-2.png\" width=\"180\" height=\"180\"></a></p>\n<p>Ho co-creato insieme a <a href=\"https://inknos.github.io/\" title=\"https://inknos.github.io/\" target=\"_blank\" rel=\"noopener noreferrer\">Nicola Sella</a> il sito <a href=\"https://libreadvice.org/\" title=\"https://libreadvice.org/\" target=\"_blank\" rel=\"noopener noreferrer\">libreadvice.org</a>, per affrontare temi riguardanti la privacy, le tecnologie etiche e per condividere buone pratiche per poter vivere più liberi nel mondo digitale.</p>\n<h3 id=\"mcetoc_1dvmq29j12\">Le campagne che sto supportando</h3>\n<p> </p>\n<p>     <a href=\"http://www.defectivebydesign.org/\"> <img src=\"https://vignini.gitlab.io/media/posts/4/RADl.png\" alt=\"DefectiveByDesign.org\" width=\"300\" height=\"300\" align=\"middle\" border=\"0\"></a>      <a href=\"https://www.eff.org/pages/blue-ribbon-campaign\"> <img src=\"https://vignini.gitlab.io/media/posts/4/external-content.duckduckgo.com.png\" alt=\"Join the Blue Ribbon Online Free Speech Campaign\" width=\"300\" height=\"1026\" align=\"middle\" border=\"0\"></a></p>\n<p> </p>\n<p><a href=\"https://u.fsf.org/upcycle\"><img src=\"https://vignini.gitlab.io/media/posts/4/winupcycle_text.png\" alt=\"Upcycle Windows 7 petition\" width=\"261\" height=\"300\"></a>                      <a href=\"http://www.fsf.org/campaigns/opendocument/\"><img src=\"https://vignini.gitlab.io/media/posts/4/all-about.png\" alt=\"Spread OpenDocument\" width=\"300\" height=\"300\" align=\"middle\" border=\"0\"></a></p>\n<p> </p>\n<p><a href=\"https://upgradefromwindows.org\"><img src=\"https://vignini.gitlab.io/media/posts/4/windows-infographic_share.png\" alt=\"Close Windows, Open Doors\" width=\"300\" height=\"200\"></a></p>",
            "image": "https://vignini.gitlab.io/media/posts/4/423169.jpg",
            "author": {
                "name": "Leonardo L. Vignini"
            },
            "tags": [
                   "activism"
            ],
            "date_published": "2020-01-25T15:05:47+01:00",
            "date_modified": "2020-02-12T21:46:06+01:00"
        },
        {
            "id": "https://vignini.gitlab.io/contattami.html",
            "url": "https://vignini.gitlab.io/contattami.html",
            "title": "Contattami",
            "summary": "Scegli un modo per metterti in contatto con me! leonardo DOT vignini AT protonmail DOT com Chiave pubblica: 67A8 0AA0 2B8C 882C 7FF9 AF6D CECB 4EA9 0FF5 9172 @vignini:mozilla.org @vignini @vignini@mastodon.social&hellip;",
            "content_html": "<p>Scegli un modo per metterti in contatto con me!</p>\n<h2 id=\"mcetoc_1dvobple30\"><img class=\"post__image\" src=\"https://external-content.duckduckgo.com/iu/?u=http%3A%2F%2Ficons.iconarchive.com%2Ficons%2Fpapirus-team%2Fpapirus-apps%2F512%2Fprotonmail-desktop-icon.png&amp;f=1&amp;nofb=1\" width=\"37\" height=\"37\"> E-mail </h2>\n<p>leonardo DOT vignini AT protonmail DOT com</p>\n<p><a href=\"https://libreadvice.org/pubkeys/Leonardo-L-Vignini-0FF59172-Public-Key.asc\" target=\"_blank\" rel=\"noopener noreferrer\">Chiave pubblica</a>: <code>67A8 0AA0 2B8C 882C 7FF9 AF6D CECB 4EA9 0FF5 9172</code> </p>\n<h2 id=\"mcetoc_1dvobv9ef2\"><img class=\"post__image\" src=\"https://external-content.duckduckgo.com/iu/?u=https%3A%2F%2Fwindows10top.com%2Fwp-content%2Fuploads%2F2018%2F09%2FRiot-Icon.png&amp;f=1&amp;nofb=1\" width=\"37\" height=\"37\"> Riot</h2>\n<p>@vignini:mozilla.org</p>\n<h2 id=\"mcetoc_1dvoe7blj0\"><img class=\"post__image\" src=\"https://about.gitlab.com/images/logo.png\" width=\"40\" height=\"37\"> GitLab</h2>\n<p>@vignini</p>\n<h2 id=\"mcetoc_1dvpa4rma1\"><img class=\"post__image\" src=\"https://vignini.gitlab.io/media/posts/3/external-content.duckduckgo.com.png\" width=\"35\" height=\"37\"> Mastodon</h2>\n<p>@vignini@mastodon.social</p>\n<p> </p>\n<h2 id=\"mcetoc_1e0q5gv060\">Affiliato Melopero</h2>\n<p>Compra attraverso i miei link!</p>\n<p> </p>\n<a href=\"https://www.melopero.com/?wpam_id=12\" target=\"_blank\" rel=\"noopener noreferrer\">Melopero.com  </a>\n<p><a href=\"https://www.melopero.com/shop/raspberry-pi/kits/raspberry-pi-4-computer-4gb-ram-official-premium-kit-with-microsd-32gb/?wpam_id=12\" target=\"_blank\" rel=\"noopener noreferrer\">Raspberry Pi 4</a></p>",
            "image": "https://vignini.gitlab.io/media/posts/3/e-mail-icons-move-in-perspective-view-on-dark-grid-background-internet-message-concept_s7esa7lke_thumbnail-full01.png",
            "author": {
                "name": "Leonardo L. Vignini"
            },
            "tags": [
                   "contact"
            ],
            "date_published": "2020-01-25T00:11:17+01:00",
            "date_modified": "2020-04-29T11:12:50+02:00"
        },
        {
            "id": "https://vignini.gitlab.io/i-miei-progetti.html",
            "url": "https://vignini.gitlab.io/i-miei-progetti.html",
            "title": "I miei progetti",
            "summary": "Le idee, queste nuove e meravigliose formazioni di senso prodotte da singole persone, [...] nascondono dentro di sé infinità intenzionali Edmun Husserl Il sito ha lo scopo di diffondere e&hellip;",
            "content_html": "<div id=\"output\">\n<blockquote>\n<p id=\"mcetoc_1dvlrkm9u0\">Le idee, queste nuove e meravigliose formazioni di senso prodotte da singole persone, [...] nascondono dentro di sé infinità intenzionali</p>\n<p>Edmun Husserl</p>\n</blockquote>\n<p id=\"mcetoc_1dvgdbkk40\"> </p>\n<h2 id=\"mcetoc_1dvov5b1b0\">Libreadvice</h2>\n<p>Il sito ha lo scopo di diffondere e informare circa soluzioni software etiche (Free Software), che mirano al rispetto della privacy e alla libertà degli utenti. Inoltre, il sito ha la missione di sensibilizzare e rendere anche le persone non tecnologiche consapevoli dei rischi legati alle nuove tecnologie. Il sito è stato da me co-creato insieme a <a href=\"https://inknos.github.io/\" title=\"https://inknos.github.io/\" target=\"_blank\" rel=\"noopener noreferrer\">Nicola Sella</a> ed è visualizzabile all'indirizzo <a href=\"https://libreadvice.org/\" title=\"https://libreadvice.org/\" target=\"_blank\" rel=\"noopener noreferrer\">libreadvice.org</a>.</p>\n<h2 id=\"mcetoc_1dvp8iaie0\">Pubblicazioni</h2>\n<p><em>Cervelli in fuga dall'Emilia-Romagna - Uno studio qualitativo</em>, Homeless Book Edizioni, Faenza (RA), 2020. ISBN <span id=\"main_content_isbn\">9788832761146. Il libro può essere scaricato gratuitamente in formato epub o pdf senza DRM al seguente link:</span></p>\n<p><span id=\"main_content_isbn\"><a href=\"https://www.homelessbook.it/catalogo/cervelli-in-fuga-dall-emilia-romagna-(ebook)/2487\">https://www.homelessbook.it/catalogo/cervelli-in-fuga-dall-emilia-romagna-(ebook)/2487</a></span></p>\n<p> </p>\n<div align=\"center\"><a href=\"http://www.defectivebydesign.org/\"> <img src=\"https://static.fsf.org/dbd/AADs.png\" alt=\"DRM is DefectiveByDesign\" width=\"150\" height=\"150\" align=\"middle\" border=\"0\"></a></div>\n<p><em>Percorsi del Sacro n. 21 – Guida della villa vescovile e della chiesa di Santa Maria in Torano</em>, Editrice Il Nuovo Diario Messaggero, Imola (BO). Il libro può essere acquistato sui seguenti siti:</p>\n<p><a href=\"https://www.ibs.it/guida-della-villa-vescovile-della-libro-vari/e/9788885473669\" target=\"_blank\" rel=\"noopener noreferrer\">https://www.ibs.it/guida-della-villa-vescovile-della-libro-vari/e/9788885473669</a></p>\n<p><a href=\"https://www.ilnuovodiario.com/libreriaonline/prodotto/guida-della-villa-vescovile-e-della-chiesa-di-santa-maria-in-torano/\" target=\"_blank\" rel=\"noopener noreferrer\">https://www.ilnuovodiario.com/libreriaonline/prodotto/guida-della-villa-vescovile-e-della-chiesa-di-santa-maria-in-torano/</a></p>\n<p>Curatore del libro: <em>Inventario di palazzo Sassatelli poi Monsignani in Imola e stima dei beni del 1821</em>, Editrice Il Nuovo Diario Messaggero, Imola (BO). Il libro può essere acquistato sui seguenti siti:</p>\n<p><a href=\"https://www.ilnuovodiario.com/libreriaonline/prodotto/inventario-di-palazzo-sassatelli-poi-monsignani-in-imola-e-stima-dei-beni-del-1821/\" target=\"_blank\" rel=\"noopener noreferrer\">https://www.ilnuovodiario.com/libreriaonline/prodotto/inventario-di-palazzo-sassatelli-poi-monsignani-in-imola-e-stima-dei-beni-del-1821/</a></p>\n<p><a href=\"https://www.libraccio.it/libro/9788832256000/inventario-di-palazzo-sassatelli-poi-monsignani-in-imola-e-stima-dei-beni-del-1821.html\" target=\"_blank\" rel=\"noopener noreferrer\">https://www.libraccio.it/libro/9788832256000/inventario-di-palazzo-sassatelli-poi-monsignani-in-imola-e-stima-dei-beni-del-1821.html</a></p>\n<p><a href=\"https://www.mondadoristore.it/Inventario-palazzo-Sassatelli-na/eai978883225600/\" target=\"_blank\" rel=\"noopener noreferrer\">https://www.mondadoristore.it/Inventario-palazzo-Sassatelli-na/eai978883225600/</a></p>\n<h2 id=\"mcetoc_1dvp8upt42\">Crowdfunding</h2>\n<p>Sono stato il creatore e il gestore della campagna di crowdfunding <a href=\"https://www.ideaginger.it/progetti/salvalasperanza.html\" title=\"https://www.ideaginger.it/progetti/salvalasperanza.html\" target=\"_blank\" rel=\"noopener noreferrer\" style=\"font-size: inherit;\">#SalvaLaSperanza</a>.<span style=\"font-size: inherit;\"> </span><span style=\"font-size: inherit;\">Il progetto è nato per sostenere la banca di microcredito IMF-Kitumaini a Bukavu (RDC). La campagna, realizzata sulla piattaforma Idea </span><span style=\"font-size: inherit;\">Ginger, ha raggiunto l’obiettivo finale di 9.951€.</span></p>\n<h2 id=\"mcetoc_1dvp8ubjt1\">I miei scritti</h2>\n<p><em>Il problema dell'empatia in Edith Stein</em></p>\n<p>Si tratta della mia tesi di laurea in Filosofia. Il soggetto è l'empatia e, nel dettaglio, dopo aver tracciato la storia del termine, esso viene analizzato da una prospettiva fenomenologica con particolare riguardo al pensiero di Edith Stein.</p>\n<p>Per scaricare il testo clicca <a href=\"https://gitlab.com/vignini/vignini.gitlab.io/raw/master/public/media/posts/2/Il_problema_dellempatia_in_Edith_Stein.pdf?inline=false\" title=\"https://gitlab.com/vignini/vignini.gitlab.io/raw/master/public/media/posts/2/Il_problema_dellempatia_in_Edith_Stein.pdf?inline=false\" target=\"_blank\" rel=\"noopener noreferrer\">qui</a>.</p>\n<p><em>Un morto non ha età. Riflessioni sulla morte prematura e la vita completa</em></p>\n<p>Un paper incentrato sulla morte il concetto di vita completa, prendendo in considerazione autori antici e moderni come Epicuro, la scuola stoica, Aristotele, Thomas Nagel, Fred Feldman e altri.</p>\n<p>Per scaricare il paper clicca <a href=\"https://gitlab.com/vignini/vignini.gitlab.io/raw/master/public/media/posts/2/Un_morto_non_ha_eta_Riflessioni_sulla_mo.pdf?inline=false\" title=\"https://gitlab.com/vignini/vignini.gitlab.io/raw/master/public/media/posts/2/Un_morto_non_ha_eta_Riflessioni_sulla_mo.pdf?inline=false\" target=\"_blank\" rel=\"noopener noreferrer\">qui</a>.</p>\n<p><em>La religione come ideologia. Un'analisi da Karl Marx a Walter Benjamin</em></p>\n<p>Un paper che analizza la concezione di religione come ideologia da una prospettiva filosofica e sociologica. Dalla comparsa di questo concetto nella filosofia di Marx si arriva ai più moderni sviluppi per opera della Scuola di Francoforte.</p>\n<p>Per scaricare il paper clicca <a href=\"https://gitlab.com/vignini/vignini.gitlab.io/raw/master/public/media/posts/2/religione_come_ideologia.pdf?inline=false\" title=\"https://gitlab.com/vignini/vignini.gitlab.io/raw/master/public/media/posts/2/religione_come_ideologia.pdf?inline=false\" target=\"_blank\" rel=\"noopener noreferrer\">qui</a>.</p>\n<h2 id=\"mcetoc_1dvp96ndi3\">Eventi e iniziative</h2>\n<p>Sono l'ideatore e principale organizzatore di numerosi eventi di promozione sociale, culturale e di raccolta fondi nella città di Imola. Tra gli eventi figurano: due edizioni di un torneo di calcetto per raccogliere fondi per i progetti a Bukavu (RDC); tre edizioni un festival musicale di tre giorni all’Interno di Imola in Musica; due serate musicali sul tema della violenza sulla donna; due edizioni di un concorso musicale rivolto a giovani cantautori. Per vedere alcuni degli eventi che ho organizzato clicca <a href=\"www.associazioneargo.org\" title=\"www.associazioneargo.org\" target=\"_blank\" rel=\"noopener noreferrer\">qui</a>!</p>\n<p> </p>\n</div>",
            "image": "https://vignini.gitlab.io/media/posts/2/124383.jpg",
            "author": {
                "name": "Leonardo L. Vignini"
            },
            "tags": [
                   "project"
            ],
            "date_published": "2020-01-25T00:11:06+01:00",
            "date_modified": "2020-03-06T18:08:43+01:00"
        },
        {
            "id": "https://vignini.gitlab.io/chi-sono.html",
            "url": "https://vignini.gitlab.io/chi-sono.html",
            "title": "Chi sono",
            "summary": "Non troverai mai la verità, se non sei disposto ad accettare anche ciò che non ti aspetti Eraclito I miei studi e interessi sono trasversali. Ho un'educazione di tipo umanistico,&hellip;",
            "content_html": "<div id=\"output\">\n<blockquote>\n<p id=\"mcetoc_1dvlrqibf0\" class=\"align-center\">Non troverai mai la verità, se non sei disposto ad accettare anche ciò che non ti aspetti</p>\n<p>Eraclito</p>\n</blockquote>\n<h2 id=\"mcetoc_1dvgd88ss0\" class=\"align-left\">Chi sono</h2>\n<p>I miei studi e interessi sono trasversali. Ho un'educazione di tipo umanistico, alla quale si accompagna lo studio dello sviluppo locale e globale.</p>\n<p>In particolare l'interesse verso il terzo settore e i Paesi in via di sviluppo mi hanno portato a realizzare numerosi progetti in ambito sociale e culturale. Mi considero un'attivista e, in quanto tale, sostengo e condivido numerose campagne.</p>\n<p>Sono molto interessato alle sfide anciate dalle nuove tecnologie e in particolare alle questioni etiche che riguardano il mondo digitale. </p>\n<p>Scarica il mio <a href=\"https://gitlab.com/vignini/vignini.gitlab.io/-/blob/master/public/media/posts/1/LVV_CV_ITA.pdf\" title=\"https://gitlab.com/vignini/vignini.gitlab.io/raw/master/public/media/posts/1/LLV_CV.pdf?inline=false\" target=\"_blank\" rel=\"noopener noreferrer\">Curriculum Vitae</a></p>\n<h2 id=\"mcetoc_1dvobm1tm1\"> I miei studi</h2>\n<p>Laurea triennale in Filosofia presso l'Alma Mater Studiorum di Bologna conseguita nel 2018. Grazie allo studio della filosofia ho acquisito la conoscenza del pensiero dei più importanti filosofi, ho sviluppato capacità critiche, interpretative, comunicative e l'abilità di approcciarmi a diversi ambiti e discipline.</p>\n<p>Mi sono laureato con 110 e Lode con una tesi dal titolo \"Il problema dell'empatia in Edith Stein\".</p>\n<p>Attualmente, sto completando gli studi in Sviluppo Locale e Globale sempre presso l'Alma Mater Studiorum di Bologna. Attraverso questo percorso di studi ho sviluppato capacità pratiche nella progettazione in tutte le fasi del <em>Project cycle management, </em>conosco le principali politiche economiche europee e i Paesi in via di sviluppo dal punto di vista storico, politico, economico e sociale. Infine, ho appreso le tecniche comunicative messe in campo in ambito sociale ed umanitario.</p>\n<h2 id=\"mcetoc_1dvobleci0\">Esperienze</h2>\n<p>Pur essendo ancora uno studente ho svolto alcune esperienze lavorative, che hanno ampliato le mia competenze comunicative e professionali.</p>\n<p>Dal 2015 collaboro con alcuni giornali locali (Il Nuovo Diario Messaggero, Sabato Sera e Il Resto del Carlino Imola) per i quali ho scritto numerosi articoli di attualità, cronaca e cultura. Inoltre con il Nuovo Diario Messaggero ho <a href=\"https://vignini.gitlab.io/i-miei-progetti.html\" target=\"_blank\" rel=\"noopener noreferrer\">pubblicato due libri</a>, uno come scrittore e uno come curatore.</p>\n<p>Nel 2019 ho svolto un tirocinio presso CEFA - Il seme della solidarietà Onlus, in cui ho lavorato nell'ufficio comunicazione e raccolta fondi, dove ho potuto apprendere le tecniche utilizzate nella promozione dei progetti e degli eventi in uno delle più importanti ONG italiane.</p>\n<p>Da marzo 2020 svolgo un tirocinio presso la <a href=\"https://www.fsf.org/it/contribuire-da-lontano-il-mio-tirocinio-dallitalia-con-il-team-delle-campagne\" target=\"_blank\" rel=\"noopener noreferrer\">Free Software Foundation</a> nel team delle campagne. </p>\n<h2 id=\"mcetoc_1dvmqnqr80\">Volontariato</h2>\n<h4 id=\"mcetoc_1dvmr03a21\">Argo</h4>\n<p>Nel 2017 ho fondato l'associazione di promozione sociale <a href=\"http://www.associazioneargo.org/\" title=\"http://www.associazioneargo.org/\" target=\"_blank\" rel=\"noopener noreferrer\">Argo</a>, della quale sono anche presidente. Le finalità dell'associazione è la promozione del mondo giovanile attraverso eventi di tipo culturale e sociale. In quanto presidente sono il responsabile, creatore e organizzatore principale di eventi socio-culturali. Inoltre, gestisco le relazioni interne coi soci e di quelle esterne con istituzioni ed aziende.</p>\n<h4 id=\"mcetoc_1dvmr3vfe2\">Gruppo Missioni Imola-Bukavu</h4>\n<p>Sono membro attivo del <a href=\"https://imolabukavu.it/\" title=\"https://imolabukavu.it/\" target=\"_blank\" rel=\"noopener noreferrer\">Gruppo Missioni Imola-Bukavu</a>, che da anni promuove i progetti umanitari nati in a Bukavu, nell'est della Repubblica Democratica del Congo, una delle aree più povere al mondo.</p>\n<p><img class=\"post__image\" src=\"https://vignini.gitlab.io/media/posts/1/img_eggsif_757346968327712271.jpg\" alt=\"Io (a destra) insieme al premio Nobel per la Pace Denis Mukwege, che lavora e opera a Bukavu\" width=\"1024\" height=\"841\"></p>\n<h4 id=\"mcetoc_1dvmr8sga0\">CEFA - Il seme della solidarietà Onlus</h4>\n<p> Dopo aver svolto un tirocinio presso <a href=\"https://www.cefaonlus.it/\" title=\"https://www.cefaonlus.it/\" target=\"_blank\" rel=\"noopener noreferrer\">CEFA Onlus</a>, continuo a prendere parte all’interno degli eventi organizzati come volontario.</p>\n</div>",
            "image": "https://vignini.gitlab.io/media/posts/1/erac.jpeg",
            "author": {
                "name": "Leonardo L. Vignini"
            },
            "tags": [
                   "me"
            ],
            "date_published": "2020-01-25T00:10:45+01:00",
            "date_modified": "2020-04-29T12:04:46+02:00"
        }
    ]
}
